[
  {
    "_id": 1,
    "name": "resting",
    "desc": "Leaves the battle, restore stats"
  },
  {
    "_id": 2,
    "name": "stuned",
    "desc": "Can't attack"
  },
  {
    "_id": 3,
    "name": "parying",
    "desc": "reduce damage, heal self and others"
  },
  {
    "_id": 4,
    "name": "focusing",
    "desc": "Increase next attack"
  }
]